{
  "id": "hazelcast",
  "constraints": [
    ["hostname", "UNIQUE"]
  ],
  "env": {
    "HZ_GROUP": "sensor",
    "HZ_PASSWORD": "sensor"
  },
  "container": {
    "docker": {
      "image": "atlp/ubuntu-trusty-hazelcast:3.7.5",
      "network": "HOST"
    },
    "type": "DOCKER"
  },
  "cpus": 1,
  "mem": 2048,
  "instances": 1,
  "ports": [ 5701 ]
}